{
	"id": "50aa2f89-04ef-e19f-5302-763dd651fddc",
	"name": "Skip the Dishes",
	"description": "",
	"order": [],
	"folders": [
		{
			"name": "Order",
			"description": "",
			"collectionId": "50aa2f89-04ef-e19f-5302-763dd651fddc",
			"order": [
				"09a003f2-80cb-1e62-bc55-d58db6a30cdc",
				"c23a9999-ff71-7b33-c843-d8aaf813dede",
				"cf40618c-6506-d585-c910-4ae747076c6e",
				"a886d26d-53d4-823c-03e0-90d0a5db8515",
				"c80b6d58-d8d3-d450-da6c-fa7cbef24c78",
				"c57e58d3-8db3-a2c6-163e-feee416ed454",
				"b9354198-e20b-d983-c2d9-9a423579ec83",
				"2589943c-da1c-2b58-3237-7befc69d30f6"
			],
			"owner": 0,
			"folders_order": [],
			"id": "1f2bc9a7-15b5-95f8-9963-e811328ab927"
		},
		{
			"name": "Product",
			"description": "",
			"collectionId": "50aa2f89-04ef-e19f-5302-763dd651fddc",
			"order": [
				"109b77a7-f93b-7f46-4985-f94fa488ae34",
				"310448df-5b17-83d8-5611-81525b6f3192",
				"fa3f6d7e-3499-a70a-5b61-82fad73c8d43",
				"cd2bb31f-780f-4857-99fa-a9299b1c0c1a",
				"d8182737-40e2-0227-296d-c49a765346bd"
			],
			"owner": 0,
			"folders_order": [],
			"id": "1991e51e-32e2-9e3b-085e-6f09b13b8f44"
		},
		{
			"name": "Security",
			"description": "",
			"collectionId": "50aa2f89-04ef-e19f-5302-763dd651fddc",
			"order": [
				"a240dd07-b67b-08ac-17bb-3c7e7c8b2042",
				"2f2021a5-8ac9-1ce7-6d11-f4203b6748f0",
				"b83e5e5f-272b-86ab-8fae-a83754894a19",
				"89ad8f5a-badb-8706-e389-9c1b15fcf458",
				"b98b68be-09c1-758c-97d7-a4d8810e14fd",
				"d1ff08c0-8d71-2c09-eb5f-a0ef72d89d60"
			],
			"owner": 0,
			"folders_order": [],
			"id": "da16cfb7-5ea8-5470-87b8-f8e0175db6d7"
		}
	],
	"folders_order": [
		"da16cfb7-5ea8-5470-87b8-f8e0175db6d7",
		"1991e51e-32e2-9e3b-085e-6f09b13b8f44",
		"1f2bc9a7-15b5-95f8-9963-e811328ab927"
	],
	"timestamp": 1521306689162,
	"owner": 0,
	"public": false,
	"requests": [
		{
			"id": "09a003f2-80cb-1e62-bc55-d58db6a30cdc",
			"headers": "Content-Type: application/json\nAuthorization: Bearer {{access_token}}\n",
			"headerData": [
				{
					"key": "Content-Type",
					"value": "application/json",
					"description": "",
					"enabled": true
				},
				{
					"key": "Authorization",
					"value": "Bearer {{access_token}}",
					"description": "",
					"enabled": true
				}
			],
			"url": "http://localhost:8081/api/v1/order",
			"folder": "1f2bc9a7-15b5-95f8-9963-e811328ab927",
			"queryParams": [],
			"preRequestScript": null,
			"pathVariables": {},
			"pathVariableData": [],
			"method": "POST",
			"data": [],
			"dataMode": "raw",
			"version": 2,
			"tests": "tests[\"Status code is 201\"] = responseCode.code === 201;\n\nvar order = JSON.parse(responseBody);\n\npostman.setEnvironmentVariable(\"orderId\", order.orderId);\n",
			"currentHelper": "normal",
			"helperAttributes": {},
			"time": 1522734484773,
			"name": "Create Order",
			"description": "",
			"collectionId": "50aa2f89-04ef-e19f-5302-763dd651fddc",
			"responses": [],
			"rawModeData": "{\n\t\"customerId\": \"56ee8cb4-2a33-11e8-b467-0ed5f89f718b\"\n}"
		},
		{
			"id": "109b77a7-f93b-7f46-4985-f94fa488ae34",
			"headers": "Content-Type: application/json\nAuthorization: Bearer {{access_token}}\n",
			"headerData": [
				{
					"key": "Content-Type",
					"value": "application/json",
					"description": "",
					"enabled": true
				},
				{
					"key": "Authorization",
					"value": "Bearer {{access_token}}",
					"description": "",
					"enabled": true
				}
			],
			"url": "http://localhost:8081/api/v1/product",
			"folder": "1991e51e-32e2-9e3b-085e-6f09b13b8f44",
			"queryParams": [],
			"preRequestScript": null,
			"pathVariables": {},
			"pathVariableData": [],
			"method": "POST",
			"data": [],
			"dataMode": "raw",
			"tests": "tests[\"Status code is 201\"] = responseCode.code === 201;\n\nvar product = JSON.parse(responseBody);\n\npostman.setEnvironmentVariable(\"productId\", product.productId);\n",
			"currentHelper": "normal",
			"helperAttributes": {},
			"time": 1521682419794,
			"name": "Create Product",
			"description": "",
			"collectionId": "50aa2f89-04ef-e19f-5302-763dd651fddc",
			"responses": [],
			"rawModeData": "{\n\t\"name\": \"Rice\",\n\t\"description\": \"Delicious rice\",\n\t\"storeId\": \"24ee7c24-2a06-11e8-b467-0ed5f89f718b\",\n\t\"price\": 10.3\n}"
		},
		{
			"id": "2589943c-da1c-2b58-3237-7befc69d30f6",
			"headers": "Authorization: Bearer {{access_token}}\n",
			"headerData": [
				{
					"key": "Authorization",
					"value": "Bearer {{access_token}}",
					"description": "",
					"enabled": true
				}
			],
			"url": "http://localhost:8082/api/v1/order/{{orderId}}",
			"folder": "1991e51e-32e2-9e3b-085e-6f09b13b8f44",
			"queryParams": [],
			"preRequestScript": null,
			"pathVariables": {},
			"pathVariableData": [],
			"method": "GET",
			"data": null,
			"dataMode": "params",
			"tests": null,
			"currentHelper": "normal",
			"helperAttributes": {},
			"time": 1522734547123,
			"name": "Find Order by ID",
			"description": "",
			"collectionId": "50aa2f89-04ef-e19f-5302-763dd651fddc",
			"responses": []
		},
		{
			"id": "2f2021a5-8ac9-1ce7-6d11-f4203b6748f0",
			"headers": "//Authorization: Bearer {{access_token}}\n",
			"headerData": [
				{
					"key": "Authorization",
					"value": "Bearer {{access_token}}",
					"description": "",
					"enabled": false
				}
			],
			"url": "http://localhost:8083/api/v1",
			"queryParams": [],
			"pathVariables": {},
			"pathVariableData": [],
			"preRequestScript": null,
			"method": "GET",
			"collectionId": "50aa2f89-04ef-e19f-5302-763dd651fddc",
			"data": null,
			"dataMode": "params",
			"name": "List Resources",
			"description": "",
			"descriptionFormat": "html",
			"time": 1522765673565,
			"version": 2,
			"responses": [],
			"tests": null,
			"currentHelper": "normal",
			"helperAttributes": {},
			"folder": "da16cfb7-5ea8-5470-87b8-f8e0175db6d7"
		},
		{
			"id": "310448df-5b17-83d8-5611-81525b6f3192",
			"headers": "Content-Type: application/json\nAuthorization: Bearer {{access_token}}\n",
			"headerData": [
				{
					"key": "Content-Type",
					"value": "application/json",
					"description": "",
					"enabled": true
				},
				{
					"key": "Authorization",
					"value": "Bearer {{access_token}}",
					"description": "",
					"enabled": true
				}
			],
			"url": "http://localhost:8081/api/v1/product/{{productId}}/detail",
			"folder": "1991e51e-32e2-9e3b-085e-6f09b13b8f44",
			"queryParams": [],
			"preRequestScript": null,
			"pathVariables": {},
			"pathVariableData": [],
			"method": "PATCH",
			"data": [],
			"dataMode": "raw",
			"tests": null,
			"currentHelper": "normal",
			"helperAttributes": {},
			"time": 1522730419038,
			"name": "Update Product Detail",
			"description": "",
			"collectionId": "50aa2f89-04ef-e19f-5302-763dd651fddc",
			"responses": [],
			"rawModeData": "{\n\t\"name\":\"My Rice\",\n\t\"description\": \"My delicious rice\"\n}\n"
		},
		{
			"id": "612a064f-d114-7917-d83e-5b7bf26f0c26",
			"headers": "",
			"headerData": [],
			"url": "http://localhost:8082/api/v1/product/{{productId}}",
			"folder": "1991e51e-32e2-9e3b-085e-6f09b13b8f44",
			"queryParams": [],
			"preRequestScript": null,
			"pathVariables": {},
			"pathVariableData": [],
			"method": "GET",
			"data": null,
			"dataMode": "params",
			"tests": null,
			"currentHelper": "normal",
			"helperAttributes": {},
			"time": 1522040401754,
			"name": "Find Product by ID",
			"description": "",
			"collectionId": "50aa2f89-04ef-e19f-5302-763dd651fddc",
			"responses": []
		},
		{
			"id": "89ad8f5a-badb-8706-e389-9c1b15fcf458",
			"headers": "",
			"headerData": [],
			"url": "http://localhost:8083/api/v1/role",
			"queryParams": [],
			"pathVariables": {},
			"pathVariableData": [],
			"preRequestScript": null,
			"method": "GET",
			"collectionId": "50aa2f89-04ef-e19f-5302-763dd651fddc",
			"data": null,
			"dataMode": "params",
			"name": "List Roles",
			"description": "",
			"descriptionFormat": "html",
			"time": 1522771114864,
			"version": 2,
			"responses": [],
			"tests": null,
			"currentHelper": "normal",
			"helperAttributes": {},
			"folder": "da16cfb7-5ea8-5470-87b8-f8e0175db6d7"
		},
		{
			"id": "a240dd07-b67b-08ac-17bb-3c7e7c8b2042",
			"headers": "Authorization: Basic Y2xpZW50OnNlY3JldA==\n",
			"headerData": [
				{
					"key": "Authorization",
					"value": "Basic Y2xpZW50OnNlY3JldA==",
					"description": "",
					"enabled": true
				}
			],
			"url": "localhost:8083/oauth/token",
			"folder": "da16cfb7-5ea8-5470-87b8-f8e0175db6d7",
			"queryParams": [],
			"preRequestScript": "",
			"pathVariables": {},
			"pathVariableData": [],
			"method": "POST",
			"data": [
				{
					"key": "grant_type",
					"value": "password",
					"type": "text",
					"enabled": true
				},
				{
					"key": "scope",
					"value": "read,write",
					"type": "text",
					"enabled": true
				},
				{
					"key": "username",
					"value": "admin@skip.ca",
					"type": "text",
					"enabled": true
				},
				{
					"key": "password",
					"value": "admin",
					"type": "text",
					"enabled": true
				}
			],
			"dataMode": "urlencoded",
			"version": 2,
			"tests": "tests[\"Status code is 201\"] = (responseCode.code === 201);\n\nvar accessToken = JSON.parse(responseBody).access_token\npostman.setGlobalVariable(\"access_token\", accessToken);\n",
			"currentHelper": "normal",
			"helperAttributes": {},
			"time": 1522764869956,
			"name": "Authentication",
			"description": "",
			"collectionId": "50aa2f89-04ef-e19f-5302-763dd651fddc",
			"responses": []
		},
		{
			"id": "a886d26d-53d4-823c-03e0-90d0a5db8515",
			"headers": "Content-Type: application/json\nAuthorization: Bearer {{access_token}}\n",
			"headerData": [
				{
					"key": "Content-Type",
					"value": "application/json",
					"description": "",
					"enabled": true
				},
				{
					"key": "Authorization",
					"value": "Bearer {{access_token}}",
					"description": "",
					"enabled": true
				}
			],
			"url": "http://localhost:8081/api/v1/order/{{orderId}}/delivery_address",
			"folder": "1f2bc9a7-15b5-95f8-9963-e811328ab927",
			"queryParams": [],
			"preRequestScript": null,
			"pathVariables": {},
			"pathVariableData": [],
			"method": "PATCH",
			"data": [],
			"dataMode": "raw",
			"version": 2,
			"tests": "",
			"currentHelper": "normal",
			"helperAttributes": {},
			"time": 1522734513155,
			"name": "Update Delivery Address",
			"description": "",
			"collectionId": "50aa2f89-04ef-e19f-5302-763dd651fddc",
			"responses": [],
			"rawModeData": "{\n\t\"deliveryAddress\": \"Street Xy\",\n\t\"contact\": \"553499999999\"\n}\n"
		},
		{
			"id": "b83e5e5f-272b-86ab-8fae-a83754894a19",
			"headers": "",
			"headerData": [],
			"url": "http://localhost:8083/api/v1/user",
			"queryParams": [],
			"pathVariables": {},
			"pathVariableData": [],
			"preRequestScript": null,
			"method": "GET",
			"collectionId": "50aa2f89-04ef-e19f-5302-763dd651fddc",
			"data": null,
			"dataMode": "params",
			"name": "List Users",
			"description": "",
			"descriptionFormat": "html",
			"time": 1522771024953,
			"version": 2,
			"responses": [],
			"tests": null,
			"currentHelper": "normal",
			"helperAttributes": {},
			"folder": "da16cfb7-5ea8-5470-87b8-f8e0175db6d7"
		},
		{
			"id": "b9354198-e20b-d983-c2d9-9a423579ec83",
			"headers": "Authorization: Bearer {{access_token}}\n",
			"headerData": [
				{
					"key": "Authorization",
					"value": "Bearer {{access_token}}",
					"description": "",
					"enabled": true
				}
			],
			"url": "http://localhost:8082/api/v1/order?page=0&size=10",
			"folder": "1f2bc9a7-15b5-95f8-9963-e811328ab927",
			"queryParams": [
				{
					"key": "page",
					"value": "0",
					"equals": true,
					"description": "",
					"enabled": true
				},
				{
					"key": "size",
					"value": "10",
					"equals": true,
					"description": "",
					"enabled": true
				}
			],
			"preRequestScript": null,
			"pathVariables": {},
			"pathVariableData": [],
			"method": "GET",
			"data": null,
			"dataMode": "params",
			"tests": null,
			"currentHelper": "normal",
			"helperAttributes": {},
			"time": 1522734539607,
			"name": "Find Order (pageable)",
			"description": "",
			"collectionId": "50aa2f89-04ef-e19f-5302-763dd651fddc",
			"responses": []
		},
		{
			"id": "b98b68be-09c1-758c-97d7-a4d8810e14fd",
			"headers": "Content-Type: application/json\n",
			"headerData": [
				{
					"key": "Content-Type",
					"value": "application/json",
					"description": "",
					"enabled": true
				}
			],
			"url": "http://localhost:8083/api/v1/user",
			"queryParams": [],
			"pathVariables": {},
			"pathVariableData": [],
			"preRequestScript": null,
			"method": "POST",
			"collectionId": "50aa2f89-04ef-e19f-5302-763dd651fddc",
			"data": [],
			"dataMode": "raw",
			"name": "Create User",
			"description": "",
			"descriptionFormat": "html",
			"time": 1522771071823,
			"version": 2,
			"responses": [],
			"tests": null,
			"currentHelper": "normal",
			"helperAttributes": {},
			"folder": "da16cfb7-5ea8-5470-87b8-f8e0175db6d7",
			"rawModeData": "{\n\t\"name\": \"User\",\n\t\"email\": \"{{$timestamp}}@skip.ca\",\n\t\"password\": \"password\"\n}\n"
		},
		{
			"id": "c23a9999-ff71-7b33-c843-d8aaf813dede",
			"headers": "Content-Type: application/json\nAuthorization: Bearer {{access_token}}\n",
			"headerData": [
				{
					"key": "Content-Type",
					"value": "application/json",
					"description": "",
					"enabled": true
				},
				{
					"key": "Authorization",
					"value": "Bearer {{access_token}}",
					"description": "",
					"enabled": true
				}
			],
			"url": "http://localhost:8081/api/v1/order/{{orderId}}/product",
			"folder": "1f2bc9a7-15b5-95f8-9963-e811328ab927",
			"queryParams": [],
			"preRequestScript": null,
			"pathVariables": {},
			"pathVariableData": [],
			"method": "POST",
			"data": [],
			"dataMode": "raw",
			"version": 2,
			"tests": "",
			"currentHelper": "normal",
			"helperAttributes": {},
			"time": 1522734494098,
			"name": "Add Product",
			"description": "",
			"collectionId": "50aa2f89-04ef-e19f-5302-763dd651fddc",
			"responses": [],
			"rawModeData": "{\n\t\"productId\": \"{{productId}}\"\n}"
		},
		{
			"id": "c57e58d3-8db3-a2c6-163e-feee416ed454",
			"headers": "Content-Type: application/json\nAuthorization: Bearer {{access_token}}\n",
			"headerData": [
				{
					"key": "Content-Type",
					"value": "application/json",
					"description": "",
					"enabled": true
				},
				{
					"key": "Authorization",
					"value": "Bearer {{access_token}}",
					"description": "",
					"enabled": true
				}
			],
			"url": "http://localhost:8081/api/v1/order/{{orderId}}/cancel",
			"folder": "1f2bc9a7-15b5-95f8-9963-e811328ab927",
			"queryParams": [],
			"preRequestScript": null,
			"pathVariables": {},
			"pathVariableData": [],
			"method": "PATCH",
			"data": [],
			"dataMode": "raw",
			"version": 2,
			"tests": "",
			"currentHelper": "normal",
			"helperAttributes": {},
			"time": 1522734528670,
			"name": "Cancel Order",
			"description": "",
			"collectionId": "50aa2f89-04ef-e19f-5302-763dd651fddc",
			"responses": [],
			"rawModeData": ""
		},
		{
			"id": "c80b6d58-d8d3-d450-da6c-fa7cbef24c78",
			"headers": "Content-Type: application/json\nAuthorization: Bearer {{access_token}}\n",
			"headerData": [
				{
					"key": "Content-Type",
					"value": "application/json",
					"description": "",
					"enabled": true
				},
				{
					"key": "Authorization",
					"value": "Bearer {{access_token}}",
					"description": "",
					"enabled": true
				}
			],
			"url": "http://localhost:8081/api/v1/order/{{orderId}}/request",
			"folder": "1f2bc9a7-15b5-95f8-9963-e811328ab927",
			"queryParams": [],
			"preRequestScript": null,
			"pathVariables": {},
			"pathVariableData": [],
			"method": "PATCH",
			"data": [],
			"dataMode": "raw",
			"version": 2,
			"tests": "",
			"currentHelper": "normal",
			"helperAttributes": {},
			"time": 1522734522016,
			"name": "Request Order",
			"description": "",
			"collectionId": "50aa2f89-04ef-e19f-5302-763dd651fddc",
			"responses": [],
			"rawModeData": ""
		},
		{
			"id": "cd2bb31f-780f-4857-99fa-a9299b1c0c1a",
			"headers": "Authorization: Bearer {{access_token}}\n",
			"headerData": [
				{
					"key": "Authorization",
					"value": "Bearer {{access_token}}",
					"description": "",
					"enabled": true
				}
			],
			"url": "http://localhost:8082/api/v1/product?page=0&size=10&fields=name,description",
			"folder": "1991e51e-32e2-9e3b-085e-6f09b13b8f44",
			"queryParams": [
				{
					"key": "page",
					"value": "0",
					"equals": true,
					"description": "",
					"enabled": true
				},
				{
					"key": "size",
					"value": "10",
					"equals": true,
					"description": "",
					"enabled": true
				},
				{
					"key": "fields",
					"value": "name,description",
					"equals": true,
					"description": "",
					"enabled": true
				}
			],
			"preRequestScript": null,
			"pathVariables": {},
			"pathVariableData": [],
			"method": "GET",
			"data": null,
			"dataMode": "params",
			"tests": null,
			"currentHelper": "normal",
			"helperAttributes": {},
			"time": 1522730444024,
			"name": "Find Products (pageable)",
			"description": "",
			"collectionId": "50aa2f89-04ef-e19f-5302-763dd651fddc",
			"responses": []
		},
		{
			"id": "cf40618c-6506-d585-c910-4ae747076c6e",
			"headers": "Content-Type: application/json\nAuthorization: Bearer {{access_token}}\n",
			"headerData": [
				{
					"key": "Content-Type",
					"value": "application/json",
					"description": "",
					"enabled": true
				},
				{
					"key": "Authorization",
					"value": "Bearer {{access_token}}",
					"description": "",
					"enabled": true
				}
			],
			"url": "http://localhost:8081/api/v1/order/{{orderId}}/product",
			"folder": "1f2bc9a7-15b5-95f8-9963-e811328ab927",
			"queryParams": [],
			"preRequestScript": null,
			"pathVariables": {},
			"pathVariableData": [],
			"method": "DELETE",
			"data": [],
			"dataMode": "raw",
			"version": 2,
			"tests": "",
			"currentHelper": "normal",
			"helperAttributes": {},
			"time": 1522734505076,
			"name": "Delete Product",
			"description": "",
			"collectionId": "50aa2f89-04ef-e19f-5302-763dd651fddc",
			"responses": [],
			"rawModeData": "{\n\t\"productId\": \"{{productId}}\"\n}"
		},
		{
			"id": "d1ff08c0-8d71-2c09-eb5f-a0ef72d89d60",
			"headers": "Content-Type: application/json\n",
			"headerData": [
				{
					"key": "Content-Type",
					"value": "application/json",
					"description": "",
					"enabled": true
				}
			],
			"url": "http://localhost:8083/api/v1/role",
			"folder": "da16cfb7-5ea8-5470-87b8-f8e0175db6d7",
			"queryParams": [],
			"preRequestScript": null,
			"pathVariables": {},
			"pathVariableData": [],
			"method": "POST",
			"data": [],
			"dataMode": "raw",
			"version": 2,
			"tests": null,
			"currentHelper": "normal",
			"helperAttributes": {},
			"time": 1522771171605,
			"name": "Create Role",
			"description": "",
			"collectionId": "50aa2f89-04ef-e19f-5302-763dd651fddc",
			"responses": [],
			"rawModeData": "{\n\t\"role\": \"{{$timestamp}}\"\n}\n"
		},
		{
			"id": "d8182737-40e2-0227-296d-c49a765346bd",
			"headers": "Authorization: Bearer {{access_token}}\n",
			"headerData": [
				{
					"key": "Authorization",
					"value": "Bearer {{access_token}}",
					"description": "",
					"enabled": true
				}
			],
			"url": "http://localhost:8082/api/v1/product/{{productId}}",
			"folder": "1f2bc9a7-15b5-95f8-9963-e811328ab927",
			"queryParams": [],
			"preRequestScript": null,
			"pathVariables": {},
			"pathVariableData": [],
			"method": "GET",
			"data": null,
			"dataMode": "params",
			"tests": null,
			"currentHelper": "normal",
			"helperAttributes": {},
			"time": 1522730462200,
			"name": "Find Order by ID",
			"description": "",
			"collectionId": "50aa2f89-04ef-e19f-5302-763dd651fddc",
			"responses": []
		},
		{
			"id": "fa3f6d7e-3499-a70a-5b61-82fad73c8d43",
			"headers": "Content-Type: application/json\nAuthorization: Bearer {{access_token}}\n",
			"headerData": [
				{
					"key": "Content-Type",
					"value": "application/json",
					"description": "",
					"enabled": true
				},
				{
					"key": "Authorization",
					"value": "Bearer {{access_token}}",
					"description": "",
					"enabled": true
				}
			],
			"url": "http://localhost:8081/api/v1/product/{{productId}}/price",
			"folder": "1991e51e-32e2-9e3b-085e-6f09b13b8f44",
			"queryParams": [],
			"preRequestScript": null,
			"pathVariables": {},
			"pathVariableData": [],
			"method": "PATCH",
			"data": [],
			"dataMode": "raw",
			"tests": null,
			"currentHelper": "normal",
			"helperAttributes": {},
			"time": 1522730432952,
			"name": "Update Product Price",
			"description": "",
			"collectionId": "50aa2f89-04ef-e19f-5302-763dd651fddc",
			"responses": [],
			"rawModeData": "{\n\t\"price\": 20.33\n}"
		}
	]
}